<?xml version="1.0" encoding="utf-8"?>
<!-- Generator: Adobe Illustrator 19.2.0, SVG Export Plug-In . SVG Version: 6.00 Build 0)  -->
<svg version="1.1" id="Layer_1" xmlns="http://www.w3.org/2000/svg" xmlns:xlink="http://www.w3.org/1999/xlink" x="0px" y="0px"
	 viewBox="0 0 1000 1000" enable-background="new 0 0 1000 1000" xml:space="preserve">
<g>
	<path d="M500.05,0C224.29,0,0,224.29,0,500.05C0,775.74,224.29,1000,500.05,1000C775.74,1000,1000,775.74,1000,500.05
		C1000,224.29,775.74,0,500.05,0L500.05,0z M624.36,517.56h-81.29c0,129.97,0,289.95,0,289.95H422.42c0,0,0-158.39,0-289.95h-57.25
		V415.19h57.25v-66.3c0-47.51,22.56-121.68,121.7-121.68l89.37,0.32v99.55c0,0-54.35,0-64.83,0c-10.61,0-25.59,5.24-25.59,27.9
		v60.21h91.79L624.36,517.56z M624.36,517.56"/>
</g>
</svg>
