{
    "uk": [
        {
            "name": "Stratford Fine Foods",
            "address": "Goldicote Business Park\nBanbury Road\nGoldicote\nStratford upon Avon\nCV37 7NB",
            "phone": "01789 740094",
            "latlng": [52.1551562,-1.6395937]
        },
        {
            "name": "Hunt's Foodservice",
            "address": "Ludbourne Road\nSherborne\nDT9 3NJ",
            "phone": "01935 810200",
            "latlng": [50.9457192,-2.5144593]
        },
        {
            "name": "Savona Foodservice South West",
            "address": "Mullacott Business Park\nIlfracombe\nEX34 8PL",
            "phone": "01271 862569",
            "latlng": [51.1775139,-4.12578]
        },
        {
            "name": "Continental Wine & Food",
            "address": "Trafalgar Mills\nLeeds Road\nHuddersfield\nWest Yorkshire\nHD2 1YY",
            "phone": "01484 538333",
            "latlng": [53.6622443,-1.7585654]
        },
        {
            "name": "Continental Quattro Stagioni",
            "address": "Royal Elizabeth Yard\nKirkliston\nEH29 9EN",
            "phone": "0131 319 1919",
            "latlng": [55.9722657,-3.3844531]
        },
        {
            "name": "Rossi International",
            "address": "Henbury Stud Farm\nSturminster Marshall\nWimborne\nDorset\nBH21 3RN",
            "phone": "01258 857210",
            "latlng": [50.7870552,-2.0602848]
        }
    ]
}