<?xml version="1.0" encoding="utf-8"?>
<svg version="1.1" viewBox="0 0 213 54" xmlns="http://www.w3.org/2000/svg" preserveAspectRatio="none">
    <polyline fill="#F0047F" points="9,2 89,3 170,0 209,8 212,31 212,48 188,51 135,49 63,51 9,53 0,34 "></polyline>
</svg>